Practica_5_codigo_VHDL/SixCounter_tb.vcd
$date
  Wed Apr 15 05:02:47 2020
$end
$version
  GHDL v0
$end
$timescale
  1 fs
$end
$scope module standard $end
$upscope $end
$scope module std_logic_1164 $end
$upscope $end
$scope module numeric_std $end
$upscope $end
$scope module mod6_counter_tb $end
$var reg 1 ! clk $end
$var reg 1 " reset $end
$var reg 4 # q[3:0] $end
$var reg 1 $ stop_the_clock $end
$scope module uut $end
$var reg 1 % clk $end
$var reg 1 & reset $end
$var reg 4 ' q[3:0] $end
$var reg 4 ( r_reg[3:0] $end
$var reg 4 ) r_next[3:0] $end
$upscope $end
$upscope $end
$enddefinitions $end
#0
0!
1"
b0000 #
0$
0%
1&
b0000 '
b0000 (
b0001 )
#500000
1!
1%
#1000000
0!
0"
0%
0&
#1500000
1!
b0001 #
1%
b0001 '
b0001 (
b0010 )
#2000000
0!
0%
#2500000
1!
b0010 #
1%
b0010 '
b0010 (
b0011 )
#3000000
0!
0%
#3500000
1!
b0011 #
1%
b0011 '
b0011 (
b0100 )
#4000000
0!
0%
#4500000
1!
b0100 #
1%
b0100 '
b0100 (
b0101 )
#5000000
0!
0%
#5500000
1!
b0101 #
1%
b0101 '
b0101 (
b0000 )
#6000000
0!
0%
#6500000
1!
b0000 #
1%
b0000 '
b0000 (
b0001 )
#7000000
0!
0%
#7500000
1!
b0001 #
1%
b0001 '
b0001 (
b0010 )
#8000000
0!
0%
#8500000
1!
b0010 #
1%
b0010 '
b0010 (
b0011 )
#9000000
0!
0%
#9500000
1!
b0011 #
1%
b0011 '
b0011 (
b0100 )
#10000000
0!
0%
#10500000
1!
b0100 #
1%
b0100 '
b0100 (
b0101 )
#11000000
0!
0%
#11500000
1!
b0101 #
1%
b0101 '
b0101 (
b0000 )
#12000000
0!
0%
#12500000
1!
b0000 #
1%
b0000 '
b0000 (
b0001 )
#13000000
0!
0%
#13500000
1!
b0001 #
1%
b0001 '
b0001 (
b0010 )
#14000000
0!
0%
#14500000
1!
b0010 #
1%
b0010 '
b0010 (
b0011 )
#15000000
0!
0%
#15500000
1!
b0011 #
1%
b0011 '
b0011 (
b0100 )
#16000000
0!
0%
#16500000
1!
b0100 #
1%
b0100 '
b0100 (
b0101 )
#17000000
0!
0%
#17500000
1!
b0101 #
1%
b0101 '
b0101 (
b0000 )
#18000000
0!
0%
#18500000
1!
b0000 #
1%
b0000 '
b0000 (
b0001 )
#19000000
0!
0%
#19500000
1!
b0001 #
1%
b0001 '
b0001 (
b0010 )
#20000000
0!
0%
#20500000
1!
b0010 #
1%
b0010 '
b0010 (
b0011 )
#21000000
0!
0%
#21500000
1!
b0011 #
1%
b0011 '
b0011 (
b0100 )
#22000000
0!
0%
#22500000
1!
b0100 #
1%
b0100 '
b0100 (
b0101 )
#23000000
0!
0%
#23500000
1!
b0101 #
1%
b0101 '
b0101 (
b0000 )
#24000000
0!
0%
#24500000
1!
b0000 #
1%
b0000 '
b0000 (
b0001 )
#25000000
0!
0%
#25500000
1!
b0001 #
1%
b0001 '
b0001 (
b0010 )
#26000000
0!
0%
#26500000
1!
b0010 #
1%
b0010 '
b0010 (
b0011 )
#27000000
0!
0%
#27500000
1!
b0011 #
1%
b0011 '
b0011 (
b0100 )
#28000000
0!
0%
#28500000
1!
b0100 #
1%
b0100 '
b0100 (
b0101 )
#29000000
0!
0%
#29500000
1!
b0101 #
1%
b0101 '
b0101 (
b0000 )
#30000000
0!
0%
#30500000
1!
b0000 #
1%
b0000 '
b0000 (
b0001 )
#31000000
0!
1$
0%
#31500000
1!
b0001 #
1%
b0001 '
b0001 (
b0010 )
