Contador_Sincrono/counter99.vcd
$date
  Mon May 11 23:41:36 2020
$end
$version
  GHDL v0
$end
$timescale
  1 fs
$end
$scope module standard $end
$upscope $end
$scope module numeric_bit $end
$upscope $end
$scope module counter99_tb $end
$var reg 1 ! cepn $end
$var reg 1 " cetn $end
$var reg 1 # updown $end
$var reg 1 $ clk $end
$var reg 1 % tc $end
$var reg 8 & q[7:0] $end
$scope module contador99 $end
$var reg 1 ' cepn $end
$var reg 1 ( cetn $end
$var reg 1 ) clk $end
$var reg 1 * updown $end
$var reg 8 + q[7:0] $end
$var reg 1 , tc $end
$var reg 8 - d[7:0] $end
$var reg 1 . load $end
$var reg 8 / q_int[7:0] $end
$var reg 1 0 tc_int $end
$var reg 1 1 tc1 $end
$var reg 1 2 tc2 $end
$scope module counter1 $end
$var reg 1 3 cepn $end
$var reg 1 4 cetn $end
$var reg 1 5 clk $end
$var reg 1 6 pen $end
$var reg 1 7 updown $end
$var reg 4 8 d[3:0] $end
$var reg 4 9 q[3:0] $end
$var reg 1 : tc $end
$var reg 4 ; q_int[3:0] $end
$upscope $end
$scope module counter2 $end
$var reg 1 < cepn $end
$var reg 1 = cetn $end
$var reg 1 > clk $end
$var reg 1 ? pen $end
$var reg 1 @ updown $end
$var reg 4 A d[3:0] $end
$var reg 4 B q[3:0] $end
$var reg 1 C tc $end
$var reg 4 D q_int[3:0] $end
$upscope $end
$upscope $end
$upscope $end
$enddefinitions $end
#0
0!
0"
1#
0$
1%
b00000000 &
0'
0(
0)
1*
b00000000 +
1,
b00000000 -
1.
b00000000 /
10
11
12
03
04
05
16
17
b0000 8
b0000 9
1:
b0000 ;
1<
0=
0>
1?
1@
b0000 A
b0000 B
1C
b0000 D
#5000000
1$
b00000001 &
1)
b00000001 +
b00000001 /
15
b0001 9
b0001 ;
1>
#10000000
0$
0)
05
0>
#15000000
1$
b00000010 &
1)
b00000010 +
b00000010 /
15
b0010 9
b0010 ;
1>
#20000000
0$
0)
05
0>
#25000000
1$
b00000011 &
1)
b00000011 +
b00000011 /
15
b0011 9
b0011 ;
1>
#30000000
0$
0)
05
0>
#35000000
1$
b00000100 &
1)
b00000100 +
b00000100 /
15
b0100 9
b0100 ;
1>
#40000000
0$
0)
05
0>
#45000000
1$
b00000101 &
1)
b00000101 +
b00000101 /
15
b0101 9
b0101 ;
1>
#50000000
0#
0$
0)
0*
02
05
07
0>
0@
0C
#55000000
1$
b00000100 &
1)
b00000100 +
b00000100 /
15
b0100 9
b0100 ;
1>
#60000000
0$
0)
05
0>
#65000000
1$
b00000011 &
1)
b00000011 +
b00000011 /
15
b0011 9
b0011 ;
1>
#70000000
0$
0)
05
0>
#75000000
1$
b00000010 &
1)
b00000010 +
b00000010 /
15
b0010 9
b0010 ;
1>
#80000000
0$
0)
05
0>
#85000000
1$
b00000001 &
1)
b00000001 +
b00000001 /
15
b0001 9
b0001 ;
1>
#90000000
0$
0)
05
0>
#95000000
1$
0%
b00000000 &
1)
b00000000 +
0,
b01100011 -
0.
b00000000 /
00
01
15
06
b0011 8
b0000 9
0:
b0000 ;
0<
1>
0?
b0110 A
#100000000
0$
0)
05
0>
#105000000
1$
1%
b01100011 &
1)
b01100011 +
1,
1.
b01100011 /
10
11
12
15
16
b0011 9
1:
b0011 ;
1<
1>
1?
b0110 B
1C
b0110 D
#110000000
0$
0)
05
0>
#115000000
1$
b01100010 &
1)
b01100010 +
b01100010 /
15
b0010 9
b0010 ;
1>
#120000000
0$
0)
05
0>
#125000000
1$
b01100001 &
1)
b01100001 +
b01100001 /
15
b0001 9
b0001 ;
1>
#130000000
0$
0)
05
0>
#135000000
1$
b01100000 &
1)
b01100000 +
b01100000 /
01
15
b0000 9
0:
b0000 ;
0<
1>
#140000000
0$
0)
05
0>
#145000000
1$
b01011111 &
1)
b01011111 +
b01011111 /
11
15
b1111 9
1:
b1111 ;
1<
1>
b0101 B
b0101 D
#150000000
0$
0)
05
0>
#155000000
1$
b01011110 &
1)
b01011110 +
b01011110 /
15
b1110 9
b1110 ;
1>
#160000000
0$
0)
05
0>
#165000000
1$
b01011101 &
1)
b01011101 +
b01011101 /
15
b1101 9
b1101 ;
1>
#170000000
0$
0)
05
0>
#175000000
1$
b01011100 &
1)
b01011100 +
b01011100 /
15
b1100 9
b1100 ;
1>
#180000000
0$
0)
05
0>
#185000000
1$
b01011011 &
1)
b01011011 +
b01011011 /
15
b1011 9
b1011 ;
1>
#190000000
0$
0)
05
0>
#195000000
1$
b01011010 &
1)
b01011010 +
b01011010 /
15
b1010 9
b1010 ;
1>
#200000000
0$
0)
05
0>
#205000000
1$
b01011001 &
1)
b01011001 +
b01011001 /
15
b1001 9
b1001 ;
1>
#210000000
0$
0)
05
0>
#215000000
1$
b01011000 &
1)
b01011000 +
b01011000 /
15
b1000 9
b1000 ;
1>
#220000000
0$
0)
05
0>
#225000000
1$
b01010111 &
1)
b01010111 +
b01010111 /
15
b0111 9
b0111 ;
1>
#230000000
0$
0)
05
0>
#235000000
1$
b01010110 &
1)
b01010110 +
b01010110 /
15
b0110 9
b0110 ;
1>
#240000000
0$
0)
05
0>
#245000000
1$
b01010101 &
1)
b01010101 +
b01010101 /
15
b0101 9
b0101 ;
1>
#250000000
0$
0)
05
0>
#255000000
1$
b01010100 &
1)
b01010100 +
b01010100 /
15
b0100 9
b0100 ;
1>
#260000000
0$
0)
05
0>
#265000000
1$
b01010011 &
1)
b01010011 +
b01010011 /
15
b0011 9
b0011 ;
1>
#270000000
0$
0)
05
0>
#275000000
1$
b01010010 &
1)
b01010010 +
b01010010 /
15
b0010 9
b0010 ;
1>
#280000000
0$
0)
05
0>
#285000000
1$
b01010001 &
1)
b01010001 +
b01010001 /
15
b0001 9
b0001 ;
1>
#290000000
0$
0)
05
0>
#295000000
1$
b01010000 &
1)
b01010000 +
b01010000 /
01
15
b0000 9
0:
b0000 ;
0<
1>
#300000000
0$
0)
05
0>
#305000000
1$
b01001111 &
1)
b01001111 +
b01001111 /
11
15
b1111 9
1:
b1111 ;
1<
1>
b0100 B
b0100 D
#310000000
0$
0)
05
0>
#315000000
1$
b01001110 &
1)
b01001110 +
b01001110 /
15
b1110 9
b1110 ;
1>
#320000000
0$
0)
05
0>
#325000000
1$
b01001101 &
1)
b01001101 +
b01001101 /
15
b1101 9
b1101 ;
1>
#330000000
0$
0)
05
0>
#335000000
1$
b01001100 &
1)
b01001100 +
b01001100 /
15
b1100 9
b1100 ;
1>
#340000000
0$
0)
05
0>
#345000000
1$
b01001011 &
1)
b01001011 +
b01001011 /
15
b1011 9
b1011 ;
1>
#350000000
0$
0)
05
0>
#355000000
1$
b01001010 &
1)
b01001010 +
b01001010 /
15
b1010 9
b1010 ;
1>
#360000000
0$
0)
05
0>
#365000000
1$
b01001001 &
1)
b01001001 +
b01001001 /
15
b1001 9
b1001 ;
1>
#370000000
0$
0)
05
0>
#375000000
1$
b01001000 &
1)
b01001000 +
b01001000 /
15
b1000 9
b1000 ;
1>
#380000000
0$
0)
05
0>
#385000000
1$
b01000111 &
1)
b01000111 +
b01000111 /
15
b0111 9
b0111 ;
1>
#390000000
0$
0)
05
0>
#395000000
1$
b01000110 &
1)
b01000110 +
b01000110 /
15
b0110 9
b0110 ;
1>
#400000000
0$
0)
05
0>
#405000000
1$
b01000101 &
1)
b01000101 +
b01000101 /
15
b0101 9
b0101 ;
1>
#410000000
0$
0)
05
0>
#415000000
1$
b01000100 &
1)
b01000100 +
b01000100 /
15
b0100 9
b0100 ;
1>
#420000000
0$
0)
05
0>
#425000000
1$
b01000011 &
1)
b01000011 +
b01000011 /
15
b0011 9
b0011 ;
1>
#430000000
0$
0)
05
0>
#435000000
1$
b01000010 &
1)
b01000010 +
b01000010 /
15
b0010 9
b0010 ;
1>
#440000000
0$
0)
05
0>
#445000000
1$
b01000001 &
1)
b01000001 +
b01000001 /
15
b0001 9
b0001 ;
1>
#450000000
0$
0)
05
0>
#455000000
1$
b01000000 &
1)
b01000000 +
b01000000 /
01
15
b0000 9
0:
b0000 ;
0<
1>
#460000000
0$
0)
05
0>
#465000000
1$
b00111111 &
1)
b00111111 +
b00111111 /
11
15
b1111 9
1:
b1111 ;
1<
1>
b0011 B
b0011 D
#470000000
0$
0)
05
0>
#475000000
1$
b00111110 &
1)
b00111110 +
b00111110 /
15
b1110 9
b1110 ;
1>
#480000000
0$
0)
05
0>
#485000000
1$
b00111101 &
1)
b00111101 +
b00111101 /
15
b1101 9
b1101 ;
1>
#490000000
0$
0)
05
0>
#495000000
1$
b00111100 &
1)
b00111100 +
b00111100 /
15
b1100 9
b1100 ;
1>
#500000000
0$
0)
05
0>
#505000000
1$
b00111011 &
1)
b00111011 +
b00111011 /
15
b1011 9
b1011 ;
1>
#510000000
0$
0)
05
0>
#515000000
1$
b00111010 &
1)
b00111010 +
b00111010 /
15
b1010 9
b1010 ;
1>
#520000000
0$
0)
05
0>
#525000000
1$
b00111001 &
1)
b00111001 +
b00111001 /
15
b1001 9
b1001 ;
1>
#530000000
0$
0)
05
0>
#535000000
1$
b00111000 &
1)
b00111000 +
b00111000 /
15
b1000 9
b1000 ;
1>
#540000000
0$
0)
05
0>
#545000000
1$
b00110111 &
1)
b00110111 +
b00110111 /
15
b0111 9
b0111 ;
1>
#550000000
0$
0)
05
0>
#555000000
1$
b00110110 &
1)
b00110110 +
b00110110 /
15
b0110 9
b0110 ;
1>
#560000000
0$
0)
05
0>
#565000000
1$
b00110101 &
1)
b00110101 +
b00110101 /
15
b0101 9
b0101 ;
1>
#570000000
0$
0)
05
0>
#575000000
1$
b00110100 &
1)
b00110100 +
b00110100 /
15
b0100 9
b0100 ;
1>
#580000000
0$
0)
05
0>
#585000000
1$
b00110011 &
1)
b00110011 +
b00110011 /
15
b0011 9
b0011 ;
1>
#590000000
0$
0)
05
0>
#595000000
1$
b00110010 &
1)
b00110010 +
b00110010 /
15
b0010 9
b0010 ;
1>
#600000000
0$
0)
05
0>
#605000000
1$
b00110001 &
1)
b00110001 +
b00110001 /
15
b0001 9
b0001 ;
1>
#610000000
0$
0)
05
0>
#615000000
1$
b00110000 &
1)
b00110000 +
b00110000 /
01
15
b0000 9
0:
b0000 ;
0<
1>
#620000000
0$
0)
05
0>
#625000000
1$
b00101111 &
1)
b00101111 +
b00101111 /
11
15
b1111 9
1:
b1111 ;
1<
1>
b0010 B
b0010 D
#630000000
0$
0)
05
0>
#635000000
1$
b00101110 &
1)
b00101110 +
b00101110 /
15
b1110 9
b1110 ;
1>
#640000000
0$
0)
05
0>
#645000000
1$
b00101101 &
1)
b00101101 +
b00101101 /
15
b1101 9
b1101 ;
1>
#650000000
0$
0)
05
0>
#655000000
1$
b00101100 &
1)
b00101100 +
b00101100 /
15
b1100 9
b1100 ;
1>
#660000000
0$
0)
05
0>
#665000000
1$
b00101011 &
1)
b00101011 +
b00101011 /
15
b1011 9
b1011 ;
1>
#670000000
0$
0)
05
0>
#675000000
1$
b00101010 &
1)
b00101010 +
b00101010 /
15
b1010 9
b1010 ;
1>
#680000000
0$
0)
05
0>
#685000000
1$
b00101001 &
1)
b00101001 +
b00101001 /
15
b1001 9
b1001 ;
1>
#690000000
0$
0)
05
0>
#695000000
1$
b00101000 &
1)
b00101000 +
b00101000 /
15
b1000 9
b1000 ;
1>
#700000000
0$
0)
05
0>
#705000000
1$
b00100111 &
1)
b00100111 +
b00100111 /
15
b0111 9
b0111 ;
1>
#710000000
0$
0)
05
0>
#715000000
1$
b00100110 &
1)
b00100110 +
b00100110 /
15
b0110 9
b0110 ;
1>
#720000000
0$
0)
05
0>
#725000000
1$
b00100101 &
1)
b00100101 +
b00100101 /
15
b0101 9
b0101 ;
1>
#730000000
0$
0)
05
0>
#735000000
1$
b00100100 &
1)
b00100100 +
b00100100 /
15
b0100 9
b0100 ;
1>
#740000000
0$
0)
05
0>
#745000000
1$
b00100011 &
1)
b00100011 +
b00100011 /
15
b0011 9
b0011 ;
1>
#750000000
0$
0)
05
0>
#755000000
1$
b00100010 &
1)
b00100010 +
b00100010 /
15
b0010 9
b0010 ;
1>
#760000000
0$
0)
05
0>
#765000000
1$
b00100001 &
1)
b00100001 +
b00100001 /
15
b0001 9
b0001 ;
1>
#770000000
0$
0)
05
0>
#775000000
1$
b00100000 &
1)
b00100000 +
b00100000 /
01
15
b0000 9
0:
b0000 ;
0<
1>
#780000000
0$
0)
05
0>
#785000000
1$
b00011111 &
1)
b00011111 +
b00011111 /
11
15
b1111 9
1:
b1111 ;
1<
1>
b0001 B
b0001 D
#790000000
0$
0)
05
0>
#795000000
1$
b00011110 &
1)
b00011110 +
b00011110 /
15
b1110 9
b1110 ;
1>
#800000000
0$
0)
05
0>
#805000000
1$
b00011101 &
1)
b00011101 +
b00011101 /
15
b1101 9
b1101 ;
1>
#810000000
0$
0)
05
0>
#815000000
1$
b00011100 &
1)
b00011100 +
b00011100 /
15
b1100 9
b1100 ;
1>
#820000000
0$
0)
05
0>
#825000000
1$
b00011011 &
1)
b00011011 +
b00011011 /
15
b1011 9
b1011 ;
1>
#830000000
0$
0)
05
0>
#835000000
1$
b00011010 &
1)
b00011010 +
b00011010 /
15
b1010 9
b1010 ;
1>
#840000000
0$
0)
05
0>
#845000000
1$
b00011001 &
1)
b00011001 +
b00011001 /
15
b1001 9
b1001 ;
1>
#850000000
0$
0)
05
0>
#855000000
1$
b00011000 &
1)
b00011000 +
b00011000 /
15
b1000 9
b1000 ;
1>
#860000000
0$
0)
05
0>
#865000000
1$
b00010111 &
1)
b00010111 +
b00010111 /
15
b0111 9
b0111 ;
1>
#870000000
0$
0)
05
0>
#875000000
1$
b00010110 &
1)
b00010110 +
b00010110 /
15
b0110 9
b0110 ;
1>
#880000000
0$
0)
05
0>
#885000000
1$
b00010101 &
1)
b00010101 +
b00010101 /
15
b0101 9
b0101 ;
1>
#890000000
0$
0)
05
0>
#895000000
1$
b00010100 &
1)
b00010100 +
b00010100 /
15
b0100 9
b0100 ;
1>
#900000000
0$
0)
05
0>
#905000000
1$
b00010011 &
1)
b00010011 +
b00010011 /
15
b0011 9
b0011 ;
1>
#910000000
0$
0)
05
0>
#915000000
1$
b00010010 &
1)
b00010010 +
b00010010 /
15
b0010 9
b0010 ;
1>
#920000000
0$
0)
05
0>
#925000000
1$
b00010001 &
1)
b00010001 +
b00010001 /
15
b0001 9
b0001 ;
1>
#930000000
0$
0)
05
0>
#935000000
1$
b00010000 &
1)
b00010000 +
b00010000 /
01
15
b0000 9
0:
b0000 ;
0<
1>
#940000000
0$
0)
05
0>
#945000000
1$
b00001111 &
1)
b00001111 +
b00001111 /
11
02
15
b1111 9
1:
b1111 ;
1<
1>
b0000 B
0C
b0000 D
#950000000
0$
0)
05
0>
#955000000
1$
b00001110 &
1)
b00001110 +
b00001110 /
15
b1110 9
b1110 ;
1>
#960000000
0$
0)
05
0>
#965000000
1$
b00001101 &
1)
b00001101 +
b00001101 /
15
b1101 9
b1101 ;
1>
#970000000
0$
0)
05
0>
#975000000
1$
b00001100 &
1)
b00001100 +
b00001100 /
15
b1100 9
b1100 ;
1>
#980000000
0$
0)
05
0>
#985000000
1$
b00001011 &
1)
b00001011 +
b00001011 /
15
b1011 9
b1011 ;
1>
#990000000
0$
0)
05
0>
#995000000
1$
b00001010 &
1)
b00001010 +
b00001010 /
15
b1010 9
b1010 ;
1>
#1000000000
0$
0)
05
0>
#1005000000
1$
b00001001 &
1)
b00001001 +
b00001001 /
15
b1001 9
b1001 ;
1>
#1010000000
0$
0)
05
0>
#1015000000
1$
b00001000 &
1)
b00001000 +
b00001000 /
15
b1000 9
b1000 ;
1>
#1020000000
0$
0)
05
0>
#1025000000
1$
b00000111 &
1)
b00000111 +
b00000111 /
15
b0111 9
b0111 ;
1>
#1030000000
0$
0)
05
0>
#1035000000
1$
b00000110 &
1)
b00000110 +
b00000110 /
15
b0110 9
b0110 ;
1>
#1040000000
0$
0)
05
0>
#1045000000
1$
b00000101 &
1)
b00000101 +
b00000101 /
15
b0101 9
b0101 ;
1>
#1050000000
1#
0$
0)
1*
12
05
17
0>
1@
1C
#1055000000
1$
b00000110 &
1)
b00000110 +
b00000110 /
15
b0110 9
b0110 ;
1>
#1060000000
0$
0)
05
0>
#1065000000
1$
b00000111 &
1)
b00000111 +
b00000111 /
15
b0111 9
b0111 ;
1>
#1070000000
0$
0)
05
0>
#1075000000
1$
b00001000 &
1)
b00001000 +
b00001000 /
15
b1000 9
b1000 ;
1>
#1080000000
0$
0)
05
0>
#1085000000
1$
b00001001 &
1)
b00001001 +
b00001001 /
15
b1001 9
b1001 ;
1>
#1090000000
0$
0)
05
0>
#1095000000
1$
b00001010 &
1)
b00001010 +
b00001010 /
15
b1010 9
b1010 ;
1>
#1100000000
0#
0$
0)
0*
02
05
07
0>
0@
0C
#1105000000
1$
b00001001 &
1)
b00001001 +
b00001001 /
15
b1001 9
b1001 ;
1>
#1110000000
0$
0)
05
0>
#1115000000
1$
b00001000 &
1)
b00001000 +
b00001000 /
15
b1000 9
b1000 ;
1>
#1120000000
0$
0)
05
0>
#1125000000
1$
b00000111 &
1)
b00000111 +
b00000111 /
15
b0111 9
b0111 ;
1>
#1130000000
0$
0)
05
0>
#1135000000
1$
b00000110 &
1)
b00000110 +
b00000110 /
15
b0110 9
b0110 ;
1>
#1140000000
0$
0)
05
0>
#1145000000
1$
b00000101 &
1)
b00000101 +
b00000101 /
15
b0101 9
b0101 ;
1>
#1150000000
0$
0)
05
0>
#1155000000
1$
b00000100 &
1)
b00000100 +
b00000100 /
15
b0100 9
b0100 ;
1>
#1160000000
0$
0)
05
0>
#1165000000
1$
b00000011 &
1)
b00000011 +
b00000011 /
15
b0011 9
b0011 ;
1>
#1170000000
0$
0)
05
0>
#1175000000
1$
b00000010 &
1)
b00000010 +
b00000010 /
15
b0010 9
b0010 ;
1>
#1180000000
0$
0)
05
0>
#1185000000
1$
b00000001 &
1)
b00000001 +
b00000001 /
15
b0001 9
b0001 ;
1>
#1190000000
0$
0)
05
0>
#1195000000
1$
0%
b00000000 &
1)
b00000000 +
0,
0.
b00000000 /
00
01
15
06
b0000 9
0:
b0000 ;
0<
1>
0?
#1200000000
0$
0)
05
0>
#1205000000
1$
1%
b01100011 &
1)
b01100011 +
1,
1.
b01100011 /
10
11
12
15
16
b0011 9
1:
b0011 ;
1<
1>
1?
b0110 B
1C
b0110 D
#1210000000
0$
0)
05
0>
#1215000000
1$
b01100010 &
1)
b01100010 +
b01100010 /
15
b0010 9
b0010 ;
1>
#1220000000
0$
0)
05
0>
#1225000000
1$
b01100001 &
1)
b01100001 +
b01100001 /
15
b0001 9
b0001 ;
1>
#1230000000
0$
0)
05
0>
#1235000000
1$
b01100000 &
1)
b01100000 +
b01100000 /
01
15
b0000 9
0:
b0000 ;
0<
1>
#1240000000
0$
0)
05
0>
#1245000000
1$
b01011111 &
1)
b01011111 +
b01011111 /
11
15
b1111 9
1:
b1111 ;
1<
1>
b0101 B
b0101 D
#1250000000
0$
0)
05
0>
#1255000000
1$
b01011110 &
1)
b01011110 +
b01011110 /
15
b1110 9
b1110 ;
1>
#1260000000
0$
0)
05
0>
#1265000000
1$
b01011101 &
1)
b01011101 +
b01011101 /
15
b1101 9
b1101 ;
1>
#1270000000
0$
0)
05
0>
#1275000000
1$
b01011100 &
1)
b01011100 +
b01011100 /
15
b1100 9
b1100 ;
1>
#1280000000
0$
0)
05
0>
#1285000000
1$
b01011011 &
1)
b01011011 +
b01011011 /
15
b1011 9
b1011 ;
1>
#1290000000
0$
0)
05
0>
#1295000000
1$
b01011010 &
1)
b01011010 +
b01011010 /
15
b1010 9
b1010 ;
1>
#1300000000
0$
0)
05
0>
#1305000000
1$
b01011001 &
1)
b01011001 +
b01011001 /
15
b1001 9
b1001 ;
1>
#1310000000
0$
0)
05
0>
#1315000000
1$
b01011000 &
1)
b01011000 +
b01011000 /
15
b1000 9
b1000 ;
1>
#1320000000
0$
0)
05
0>
#1325000000
1$
b01010111 &
1)
b01010111 +
b01010111 /
15
b0111 9
b0111 ;
1>
#1330000000
0$
0)
05
0>
#1335000000
1$
b01010110 &
1)
b01010110 +
b01010110 /
15
b0110 9
b0110 ;
1>
#1340000000
0$
0)
05
0>
#1345000000
1$
b01010101 &
1)
b01010101 +
b01010101 /
15
b0101 9
b0101 ;
1>
#1350000000
0$
0)
05
0>
#1355000000
1$
b01010100 &
1)
b01010100 +
b01010100 /
15
b0100 9
b0100 ;
1>
#1360000000
0$
0)
05
0>
#1365000000
1$
b01010011 &
1)
b01010011 +
b01010011 /
15
b0011 9
b0011 ;
1>
#1370000000
0$
0)
05
0>
#1375000000
1$
b01010010 &
1)
b01010010 +
b01010010 /
15
b0010 9
b0010 ;
1>
#1380000000
0$
0)
05
0>
#1385000000
1$
b01010001 &
1)
b01010001 +
b01010001 /
15
b0001 9
b0001 ;
1>
#1390000000
0$
0)
05
0>
#1395000000
1$
b01010000 &
1)
b01010000 +
b01010000 /
01
15
b0000 9
0:
b0000 ;
0<
1>
#1400000000
0$
0)
05
0>
#1405000000
1$
b01001111 &
1)
b01001111 +
b01001111 /
11
15
b1111 9
1:
b1111 ;
1<
1>
b0100 B
b0100 D
#1410000000
0$
0)
05
0>
#1415000000
1$
b01001110 &
1)
b01001110 +
b01001110 /
15
b1110 9
b1110 ;
1>
#1420000000
0$
0)
05
0>
#1425000000
1$
b01001101 &
1)
b01001101 +
b01001101 /
15
b1101 9
b1101 ;
1>
#1430000000
0$
0)
05
0>
#1435000000
1$
b01001100 &
1)
b01001100 +
b01001100 /
15
b1100 9
b1100 ;
1>
#1440000000
0$
0)
05
0>
#1445000000
1$
b01001011 &
1)
b01001011 +
b01001011 /
15
b1011 9
b1011 ;
1>
#1450000000
0$
0)
05
0>
#1455000000
1$
b01001010 &
1)
b01001010 +
b01001010 /
15
b1010 9
b1010 ;
1>
#1460000000
0$
0)
05
0>
#1465000000
1$
b01001001 &
1)
b01001001 +
b01001001 /
15
b1001 9
b1001 ;
1>
#1470000000
0$
0)
05
0>
#1475000000
1$
b01001000 &
1)
b01001000 +
b01001000 /
15
b1000 9
b1000 ;
1>
#1480000000
0$
0)
05
0>
#1485000000
1$
b01000111 &
1)
b01000111 +
b01000111 /
15
b0111 9
b0111 ;
1>
#1490000000
0$
0)
05
0>
#1495000000
1$
b01000110 &
1)
b01000110 +
b01000110 /
15
b0110 9
b0110 ;
1>
#1500000000
0$
0)
05
0>
#1505000000
1$
b01000101 &
1)
b01000101 +
b01000101 /
15
b0101 9
b0101 ;
1>
#1510000000
0$
0)
05
0>
#1515000000
1$
b01000100 &
1)
b01000100 +
b01000100 /
15
b0100 9
b0100 ;
1>
#1520000000
0$
0)
05
0>
#1525000000
1$
b01000011 &
1)
b01000011 +
b01000011 /
15
b0011 9
b0011 ;
1>
#1530000000
0$
0)
05
0>
#1535000000
1$
b01000010 &
1)
b01000010 +
b01000010 /
15
b0010 9
b0010 ;
1>
#1540000000
0$
0)
05
0>
#1545000000
1$
b01000001 &
1)
b01000001 +
b01000001 /
15
b0001 9
b0001 ;
1>
#1550000000
0$
0)
05
0>
#1555000000
1$
b01000000 &
1)
b01000000 +
b01000000 /
01
15
b0000 9
0:
b0000 ;
0<
1>
#1560000000
0$
0)
05
0>
#1565000000
1$
b00111111 &
1)
b00111111 +
b00111111 /
11
15
b1111 9
1:
b1111 ;
1<
1>
b0011 B
b0011 D
#1570000000
0$
0)
05
0>
#1575000000
1$
b00111110 &
1)
b00111110 +
b00111110 /
15
b1110 9
b1110 ;
1>
#1580000000
0$
0)
05
0>
#1585000000
1$
b00111101 &
1)
b00111101 +
b00111101 /
15
b1101 9
b1101 ;
1>
#1590000000
0$
0)
05
0>
#1595000000
1$
b00111100 &
1)
b00111100 +
b00111100 /
15
b1100 9
b1100 ;
1>
#1600000000
0$
0)
05
0>
#1605000000
1$
b00111011 &
1)
b00111011 +
b00111011 /
15
b1011 9
b1011 ;
1>
#1610000000
0$
0)
05
0>
#1615000000
1$
b00111010 &
1)
b00111010 +
b00111010 /
15
b1010 9
b1010 ;
1>
#1620000000
0$
0)
05
0>
#1625000000
1$
b00111001 &
1)
b00111001 +
b00111001 /
15
b1001 9
b1001 ;
1>
#1630000000
0$
0)
05
0>
#1635000000
1$
b00111000 &
1)
b00111000 +
b00111000 /
15
b1000 9
b1000 ;
1>
#1640000000
0$
0)
05
0>
#1645000000
1$
b00110111 &
1)
b00110111 +
b00110111 /
15
b0111 9
b0111 ;
1>
#1650000000
0$
0)
05
0>
#1655000000
1$
b00110110 &
1)
b00110110 +
b00110110 /
15
b0110 9
b0110 ;
1>
#1660000000
0$
0)
05
0>
#1665000000
1$
b00110101 &
1)
b00110101 +
b00110101 /
15
b0101 9
b0101 ;
1>
#1670000000
0$
0)
05
0>
#1675000000
1$
b00110100 &
1)
b00110100 +
b00110100 /
15
b0100 9
b0100 ;
1>
#1680000000
0$
0)
05
0>
#1685000000
1$
b00110011 &
1)
b00110011 +
b00110011 /
15
b0011 9
b0011 ;
1>
#1690000000
0$
0)
05
0>
#1695000000
1$
b00110010 &
1)
b00110010 +
b00110010 /
15
b0010 9
b0010 ;
1>
#1700000000
0$
0)
05
0>
#1705000000
1$
b00110001 &
1)
b00110001 +
b00110001 /
15
b0001 9
b0001 ;
1>
#1710000000
0$
0)
05
0>
#1715000000
1$
b00110000 &
1)
b00110000 +
b00110000 /
01
15
b0000 9
0:
b0000 ;
0<
1>
#1720000000
0$
0)
05
0>
#1725000000
1$
b00101111 &
1)
b00101111 +
b00101111 /
11
15
b1111 9
1:
b1111 ;
1<
1>
b0010 B
b0010 D
#1730000000
0$
0)
05
0>
#1735000000
1$
b00101110 &
1)
b00101110 +
b00101110 /
15
b1110 9
b1110 ;
1>
#1740000000
0$
0)
05
0>
#1745000000
1$
b00101101 &
1)
b00101101 +
b00101101 /
15
b1101 9
b1101 ;
1>
#1750000000
0$
0)
05
0>
#1755000000
1$
b00101100 &
1)
b00101100 +
b00101100 /
15
b1100 9
b1100 ;
1>
#1760000000
0$
0)
05
0>
#1765000000
1$
b00101011 &
1)
b00101011 +
b00101011 /
15
b1011 9
b1011 ;
1>
#1770000000
0$
0)
05
0>
#1775000000
1$
b00101010 &
1)
b00101010 +
b00101010 /
15
b1010 9
b1010 ;
1>
#1780000000
0$
0)
05
0>
#1785000000
1$
b00101001 &
1)
b00101001 +
b00101001 /
15
b1001 9
b1001 ;
1>
#1790000000
0$
0)
05
0>
#1795000000
1$
b00101000 &
1)
b00101000 +
b00101000 /
15
b1000 9
b1000 ;
1>
#1800000000
0$
0)
05
0>
#1805000000
1$
b00100111 &
1)
b00100111 +
b00100111 /
15
b0111 9
b0111 ;
1>
#1810000000
0$
0)
05
0>
#1815000000
1$
b00100110 &
1)
b00100110 +
b00100110 /
15
b0110 9
b0110 ;
1>
#1820000000
0$
0)
05
0>
#1825000000
1$
b00100101 &
1)
b00100101 +
b00100101 /
15
b0101 9
b0101 ;
1>
#1830000000
0$
0)
05
0>
#1835000000
1$
b00100100 &
1)
b00100100 +
b00100100 /
15
b0100 9
b0100 ;
1>
#1840000000
0$
0)
05
0>
#1845000000
1$
b00100011 &
1)
b00100011 +
b00100011 /
15
b0011 9
b0011 ;
1>
#1850000000
0$
0)
05
0>
#1855000000
1$
b00100010 &
1)
b00100010 +
b00100010 /
15
b0010 9
b0010 ;
1>
#1860000000
0$
0)
05
0>
#1865000000
1$
b00100001 &
1)
b00100001 +
b00100001 /
15
b0001 9
b0001 ;
1>
#1870000000
0$
0)
05
0>
#1875000000
1$
b00100000 &
1)
b00100000 +
b00100000 /
01
15
b0000 9
0:
b0000 ;
0<
1>
#1880000000
0$
0)
05
0>
#1885000000
1$
b00011111 &
1)
b00011111 +
b00011111 /
11
15
b1111 9
1:
b1111 ;
1<
1>
b0001 B
b0001 D
#1890000000
0$
0)
05
0>
#1895000000
1$
b00011110 &
1)
b00011110 +
b00011110 /
15
b1110 9
b1110 ;
1>
#1900000000
0$
0)
05
0>
#1905000000
1$
b00011101 &
1)
b00011101 +
b00011101 /
15
b1101 9
b1101 ;
1>
#1910000000
0$
0)
05
0>
#1915000000
1$
b00011100 &
1)
b00011100 +
b00011100 /
15
b1100 9
b1100 ;
1>
#1920000000
0$
0)
05
0>
#1925000000
1$
b00011011 &
1)
b00011011 +
b00011011 /
15
b1011 9
b1011 ;
1>
#1930000000
0$
0)
05
0>
#1935000000
1$
b00011010 &
1)
b00011010 +
b00011010 /
15
b1010 9
b1010 ;
1>
#1940000000
0$
0)
05
0>
#1945000000
1$
b00011001 &
1)
b00011001 +
b00011001 /
15
b1001 9
b1001 ;
1>
#1950000000
0$
0)
05
0>
#1955000000
1$
b00011000 &
1)
b00011000 +
b00011000 /
15
b1000 9
b1000 ;
1>
#1960000000
0$
0)
05
0>
#1965000000
1$
b00010111 &
1)
b00010111 +
b00010111 /
15
b0111 9
b0111 ;
1>
#1970000000
0$
0)
05
0>
#1975000000
1$
b00010110 &
1)
b00010110 +
b00010110 /
15
b0110 9
b0110 ;
1>
#1980000000
0$
0)
05
0>
#1985000000
1$
b00010101 &
1)
b00010101 +
b00010101 /
15
b0101 9
b0101 ;
1>
#1990000000
0$
0)
05
0>
#1995000000
1$
b00010100 &
1)
b00010100 +
b00010100 /
15
b0100 9
b0100 ;
1>
#2000000000
0$
0)
05
0>
#2005000000
1$
b00010011 &
1)
b00010011 +
b00010011 /
15
b0011 9
b0011 ;
1>
#2010000000
0$
0)
05
0>
#2015000000
1$
b00010010 &
1)
b00010010 +
b00010010 /
15
b0010 9
b0010 ;
1>
#2020000000
0$
0)
05
0>
#2025000000
1$
b00010001 &
1)
b00010001 +
b00010001 /
15
b0001 9
b0001 ;
1>
#2030000000
0$
0)
05
0>
